…
``` r
library(tidyverse)
```

## Gather

And let’s the gather formula do what we want.

``` r
starwars%>% gather(name, height, mass, hair_color, skin_color, eye_color, birth_year, sex, gender, homeworld, species, films, vehicles, convert = TRUE)
```

    ## # A tibble: 957 x 3
    ##    starships name  height   
    ##    <list>    <chr> <list>   
    ##  1 <chr [2]> mass  <dbl [1]>
    ##  2 <chr [0]> mass  <dbl [1]>
    ##  3 <chr [0]> mass  <dbl [1]>
    ##  4 <chr [1]> mass  <dbl [1]>
    ##  5 <chr [0]> mass  <dbl [1]>
    ##  6 <chr [0]> mass  <dbl [1]>
    ##  7 <chr [0]> mass  <dbl [1]>
    ##  8 <chr [0]> mass  <dbl [1]>
    ##  9 <chr [1]> mass  <dbl [1]>
    ## 10 <chr [5]> mass  <dbl [1]>
    ## # ... with 947 more rows

There we reversed the wide table in a long table. (In this format, the
table is really big. For me I would used the previous format if I really
needed for a study.) We can try the formula of pivot_longer and use
numeric variables to make it better.

## Pivot

``` r
starwars %>% pivot_longer (c("mass", "birth_year"), names_to = "variables")
```

    ## # A tibble: 174 x 14
    ##    name    height hair_color skin_color eye_color sex   gender homeworld species
    ##    <chr>    <int> <chr>      <chr>      <chr>     <chr> <chr>  <chr>     <chr>  
    ##  1 Luke S~    172 blond      fair       blue      male  mascu~ Tatooine  Human  
    ##  2 Luke S~    172 blond      fair       blue      male  mascu~ Tatooine  Human  
    ##  3 C-3PO      167 <NA>       gold       yellow    none  mascu~ Tatooine  Droid  
    ##  4 C-3PO      167 <NA>       gold       yellow    none  mascu~ Tatooine  Droid  
    ##  5 R2-D2       96 <NA>       white, bl~ red       none  mascu~ Naboo     Droid  
    ##  6 R2-D2       96 <NA>       white, bl~ red       none  mascu~ Naboo     Droid  
    ##  7 Darth ~    202 none       white      yellow    male  mascu~ Tatooine  Human  
    ##  8 Darth ~    202 none       white      yellow    male  mascu~ Tatooine  Human  
    ##  9 Leia O~    150 brown      light      brown     fema~ femin~ Alderaan  Human  
    ## 10 Leia O~    150 brown      light      brown     fema~ femin~ Alderaan  Human  
    ## # ... with 164 more rows, and 5 more variables: films <list>, vehicles <list>,
    ## #   starships <list>, variables <chr>, value <dbl>
…
Now we will take a column in our dataset and split the columns values
into new columns with the formula separate(). It’s a bit hard because in
this dataset, I don’t have a relevant value to split. However, I chose
to do it with skin color because some of the sample have several color
for their skin(s). I think it’s funny… Let’s do it.

## Separation

``` r
starwars %>% separate(skin_color, into=c("skin", "color"), sep=",")
```

    ## # A tibble: 87 x 15
    ##    name    height  mass hair_color skin  color eye_color birth_year sex   gender
    ##    <chr>    <int> <dbl> <chr>      <chr> <chr> <chr>          <dbl> <chr> <chr> 
    ##  1 Luke S~    172    77 blond      fair   <NA> blue            19   male  mascu~
    ##  2 C-3PO      167    75 <NA>       gold   <NA> yellow         112   none  mascu~
    ##  3 R2-D2       96    32 <NA>       white " bl~ red             33   none  mascu~
    ##  4 Darth ~    202   136 none       white  <NA> yellow          41.9 male  mascu~
    ##  5 Leia O~    150    49 brown      light  <NA> brown           19   fema~ femin~
    ##  6 Owen L~    178   120 brown, gr~ light  <NA> blue            52   male  mascu~
    ##  7 Beru W~    165    75 brown      light  <NA> blue            47   fema~ femin~
    ##  8 R5-D4       97    32 <NA>       white " re~ red             NA   none  mascu~
    ##  9 Biggs ~    183    84 black      light  <NA> brown           24   male  mascu~
    ## 10 Obi-Wa~    182    77 auburn, w~ fair   <NA> blue-gray       57   male  mascu~
    ## # ... with 77 more rows, and 5 more variables: homeworld <chr>, species <chr>,
    ## #   films <list>, vehicles <list>, starships <list>
…
*One week after having published this data on the web* Okay, I received
too much critics about my idea that their skins could change when this
characters were angry…You really shouldn’t joke with star wars’ fans… I
decided to cancel my previous separation and unite these 2 columns
again. For that I used the formula unite().

## Unite

``` r
starwars_sep%>% unite(skin_color, original_skin_color, alternative_skin_color) 
```

    ## # A tibble: 87 x 14
    ##    name     height  mass hair_color skin_color eye_color birth_year sex   gender
    ##    <chr>     <int> <dbl> <chr>      <chr>      <chr>          <dbl> <chr> <chr> 
    ##  1 Luke Sk~    172    77 blond      fair_NA    blue            19   male  mascu~
    ##  2 C-3PO       167    75 <NA>       gold_NA    yellow         112   none  mascu~
    ##  3 R2-D2        96    32 <NA>       white_ bl~ red             33   none  mascu~
    ##  4 Darth V~    202   136 none       white_NA   yellow          41.9 male  mascu~
    ##  5 Leia Or~    150    49 brown      light_NA   brown           19   fema~ femin~
    ##  6 Owen La~    178   120 brown, gr~ light_NA   blue            52   male  mascu~
    ##  7 Beru Wh~    165    75 brown      light_NA   blue            47   fema~ femin~
    ##  8 R5-D4        97    32 <NA>       white_ red red             NA   none  mascu~
    ##  9 Biggs D~    183    84 black      light_NA   brown           24   male  mascu~
    ## 10 Obi-Wan~    182    77 auburn, w~ fair_NA    blue-gray       57   male  mascu~
    ## # ... with 77 more rows, and 5 more variables: homeworld <chr>, species <chr>,
    ## #   films <list>, vehicles <list>, starships <list>

Okay, the problem is that all NA are jointed and it’s not aesthetic.
Moreover, I don’t like the separation “\_“, and I’m sure that fans won’t
like too. Let’s do the changes.

``` r
starwars_sep%>% unite(skin_color, original_skin_color, alternative_skin_color, sep = ",", na.rm = TRUE) 
```

    ## # A tibble: 87 x 14
    ##    name     height  mass hair_color skin_color eye_color birth_year sex   gender
    ##    <chr>     <int> <dbl> <chr>      <chr>      <chr>          <dbl> <chr> <chr> 
    ##  1 Luke Sk~    172    77 blond      fair       blue            19   male  mascu~
    ##  2 C-3PO       167    75 <NA>       gold       yellow         112   none  mascu~
    ##  3 R2-D2        96    32 <NA>       white, bl~ red             33   none  mascu~
    ##  4 Darth V~    202   136 none       white      yellow          41.9 male  mascu~
    ##  5 Leia Or~    150    49 brown      light      brown           19   fema~ femin~
    ##  6 Owen La~    178   120 brown, gr~ light      blue            52   male  mascu~
    ##  7 Beru Wh~    165    75 brown      light      blue            47   fema~ femin~
    ##  8 R5-D4        97    32 <NA>       white, red red             NA   none  mascu~
    ##  9 Biggs D~    183    84 black      light      brown           24   male  mascu~
    ## 10 Obi-Wan~    182    77 auburn, w~ fair       blue-gray       57   male  mascu~
    ## # ... with 77 more rows, and 5 more variables: homeworld <chr>, species <chr>,
    ## #   films <list>, vehicles <list>, starships <list>
…
